2018-05-02 | TOTAL DATA: 11 | INSERT DATA: 0 | UPDATE DATA: 11 FAILED: 0
2018-07-18 | TOTAL DATA: 2 | INSERT DATA: 2 | UPDATE DATA: 0 FAILED: 0
2018-07-18 | TOTAL DATA: 2 | INSERT DATA: 1 | UPDATE DATA: 1 FAILED: 0
2018-07-18 | TOTAL DATA: 2 | INSERT DATA: 0 | UPDATE DATA: 2 FAILED: 0
2018-07-18 | TOTAL DATA: 2 | INSERT DATA: 0 | UPDATE DATA: 2 FAILED: 0
2018-07-18 | TOTAL DATA: 2 | INSERT DATA: 2 | UPDATE DATA: 0 FAILED: 0
2018-07-18 | TOTAL DATA: 2 | INSERT DATA: 0 | UPDATE DATA: 2 FAILED: 0
2018-07-18 | TOTAL DATA: 2 | INSERT DATA: 0 | UPDATE DATA: 2 FAILED: 0
2018-07-18 | TOTAL DATA: 2 | INSERT DATA: 0 | UPDATE DATA: 2 FAILED: 0
2018-07-18 | TOTAL DATA: 2 | INSERT DATA: 0 | UPDATE DATA: 2 FAILED: 0
2018-07-18 | TOTAL DATA: 2 | INSERT DATA: 0 | UPDATE DATA: 2 FAILED: 0
2018-07-18 | TOTAL DATA: 2 | INSERT DATA: 2 | UPDATE DATA: 0 FAILED: 0
2018-07-18 | TOTAL DATA: 2 | INSERT DATA: 0 | UPDATE DATA: 2 FAILED: 0
2018-07-18 | TOTAL DATA: 2 | INSERT DATA: 0 | UPDATE DATA: 2 FAILED: 0
2018-07-18 | TOTAL DATA: 2 | INSERT DATA: 0 | UPDATE DATA: 2 FAILED: 0
2018-07-18 | TOTAL DATA: 2 | INSERT DATA: 2 | UPDATE DATA: 0 FAILED: 0
2018-07-18 | TOTAL DATA: 2 | INSERT DATA: 2 | UPDATE DATA: 0 FAILED: 0
2018-07-18 | TOTAL DATA: 2 | INSERT DATA: 2 | UPDATE DATA: 0 FAILED: 0
2018-07-18 | TOTAL DATA: 2 | INSERT DATA: 2 | UPDATE DATA: 0 FAILED: 0
2018-07-18 | TOTAL DATA: 2 | INSERT DATA: 0 | UPDATE DATA: 2 FAILED: 0
2018-07-18 | TOTAL DATA: 2 | INSERT DATA: 0 | UPDATE DATA: 2 FAILED: 0
2018-07-18 | TOTAL DATA: 2 | INSERT DATA: 2 | UPDATE DATA: 0 FAILED: 0
2018-07-18 | TOTAL DATA: 2 | INSERT DATA: 2 | UPDATE DATA: 0 FAILED: 0
2018-07-18 | TOTAL DATA: 2 | INSERT DATA: 0 | UPDATE DATA: 2 FAILED: 0
2018-07-18 | TOTAL DATA: 2 | INSERT DATA: 2 | UPDATE DATA: 0 FAILED: 0
2018-07-18 | TOTAL DATA: 2 | INSERT DATA: 2 | UPDATE DATA: 0 FAILED: 0
2018-07-19 | TOTAL DATA: 2 | INSERT DATA: 2 | UPDATE DATA: 0 FAILED: 0
2018-07-19 | TOTAL DATA: 2 | INSERT DATA: 2 | UPDATE DATA: 0 FAILED: 0
2018-07-19 | TOTAL DATA: 2 | INSERT DATA: 2 | UPDATE DATA: 0 FAILED: 0
2018-07-19 | TOTAL DATA: 2 | INSERT DATA: 2 | UPDATE DATA: 0 FAILED: 0
2018-07-19 | TOTAL DATA: 2 | INSERT DATA: 2 | UPDATE DATA: 0 FAILED: 0
2018-07-19 | TOTAL DATA: 2 | INSERT DATA: 0 | UPDATE DATA: 2 FAILED: 0
2018-07-19 | TOTAL DATA: 2 | INSERT DATA: 0 | UPDATE DATA: 2 FAILED: 0
2018-07-19 | TOTAL DATA: 2 | INSERT DATA: 1 | UPDATE DATA: 1 FAILED: 0
2018-07-19 | TOTAL DATA: 2 | INSERT DATA: 2 | UPDATE DATA: 0 FAILED: 0
2018-07-19 | TOTAL DATA: 2 | INSERT DATA: 2 | UPDATE DATA: 0 FAILED: 0
2018-07-19 | TOTAL DATA: 2 | INSERT DATA: 0 | UPDATE DATA: 2 FAILED: 0
2018-07-19 | TOTAL DATA: 2 | INSERT DATA: 2 | UPDATE DATA: 0 FAILED: 0
2018-07-19 | TOTAL DATA: 2 | INSERT DATA: 2 | UPDATE DATA: 0 FAILED: 0
2018-07-19 | TOTAL DATA: 2 | INSERT DATA: 2 | UPDATE DATA: 0 FAILED: 0
2018-07-19 | TOTAL DATA: 2 | INSERT DATA: 1 | UPDATE DATA: 1 FAILED: 0
2018-07-19 | TOTAL DATA: 1 | INSERT DATA: 1 | UPDATE DATA: 0 FAILED: 0
2018-07-19 | TOTAL DATA: 1 | INSERT DATA: 1 | UPDATE DATA: 0 FAILED: 0
2018-07-19 | TOTAL DATA: 1 | INSERT DATA: 1 | UPDATE DATA: 0 FAILED: 0
2018-07-19 | TOTAL DATA: 2 | INSERT DATA: 2 | UPDATE DATA: 0 FAILED: 0
2018-07-19 | TOTAL DATA: 2 | INSERT DATA: 2 | UPDATE DATA: 0 FAILED: 0
2018-07-19 | TOTAL DATA: 2 | INSERT DATA: 2 | UPDATE DATA: 0 FAILED: 0
2018-07-19 | TOTAL DATA: 2 | INSERT DATA: 0 | UPDATE DATA: 2 FAILED: 0
2018-07-19 | TOTAL DATA: 2 | INSERT DATA: 2 | UPDATE DATA: 0 FAILED: 0
2018-07-19 | TOTAL DATA: 2 | INSERT DATA: 2 | UPDATE DATA: 0 FAILED: 0
2018-07-19 | TOTAL DATA: 2 | INSERT DATA: 2 | UPDATE DATA: 0 FAILED: 0
2018-07-19 | TOTAL DATA: 2 | INSERT DATA: 2 | UPDATE DATA: 0 FAILED: 0
2018-07-19 | TOTAL DATA: 2 | INSERT DATA: 2 | UPDATE DATA: 0 FAILED: 0
2018-07-19 | TOTAL DATA: 2 | INSERT DATA: 2 | UPDATE DATA: 0 FAILED: 0
2018-07-19 | TOTAL DATA: 2 | INSERT DATA: 1 | UPDATE DATA: 1 FAILED: 0
2018-07-19 | TOTAL DATA: 2 | INSERT DATA: 0 | UPDATE DATA: 2 FAILED: 0
